module eotl.supply/sextant

go 1.21

toolchain go1.21.1

require (
	github.com/fusion44/go_where39 v0.0.0-20220208180917-af95a9482520
	github.com/gavv/httpexpect/v2 v2.16.0
	github.com/gocarina/gocsv v0.0.0-20231116093920-b87c2d0e983a
	github.com/gosimple/slug v1.14.0
	github.com/jedib0t/go-pretty/v6 v6.5.4
	github.com/kataras/iris/v12 v12.2.10
	github.com/mattn/go-sqlite3 v1.14.22
	github.com/paulmach/orb v0.11.1
	github.com/pelletier/go-toml v1.9.5
	github.com/sergi/go-diff v1.3.1
	github.com/stretchr/testify v1.9.0
	gopkg.in/yaml.v3 v3.0.1
)

require (
	github.com/BurntSushi/toml v1.3.2 // indirect
	github.com/CloudyKit/fastprinter v0.0.0-20200109182630-33d98a066a53 // indirect
	github.com/CloudyKit/jet/v6 v6.2.0 // indirect
	github.com/Joker/jade v1.1.3 // indirect
	github.com/Shopify/goreferrer v0.0.0-20220729165902-8cddb4f5de06 // indirect
	github.com/TylerBrock/colorjson v0.0.0-20200706003622-8a50f05110d2 // indirect
	github.com/ajg/form v1.5.1 // indirect
	github.com/andybalholm/brotli v1.1.0 // indirect
	github.com/aymerick/douceur v0.2.0 // indirect
	github.com/davecgh/go-spew v1.1.1 // indirect
	github.com/fatih/color v1.16.0 // indirect
	github.com/fatih/structs v1.1.0 // indirect
	github.com/flosch/pongo2/v4 v4.0.2 // indirect
	github.com/gobwas/glob v0.2.3 // indirect
	github.com/golang/snappy v0.0.4 // indirect
	github.com/gomarkdown/markdown v0.0.0-20231222211730-1d6d20845b47 // indirect
	github.com/google/go-querystring v1.1.0 // indirect
	github.com/google/uuid v1.6.0 // indirect
	github.com/gorilla/css v1.0.1 // indirect
	github.com/gorilla/websocket v1.5.1 // indirect
	github.com/gosimple/unidecode v1.0.1 // indirect
	github.com/imkira/go-interpol v1.1.0 // indirect
	github.com/iris-contrib/schema v0.0.6 // indirect
	github.com/josharian/intern v1.0.0 // indirect
	github.com/json-iterator/go v1.1.12 // indirect
	github.com/kataras/blocks v0.0.8 // indirect
	github.com/kataras/golog v0.1.11 // indirect
	github.com/kataras/pio v0.0.13 // indirect
	github.com/kataras/sitemap v0.0.6 // indirect
	github.com/kataras/tunnel v0.0.4 // indirect
	github.com/klauspost/compress v1.17.7 // indirect
	github.com/mailgun/raymond/v2 v2.0.48 // indirect
	github.com/mailru/easyjson v0.7.7 // indirect
	github.com/mattn/go-colorable v0.1.13 // indirect
	github.com/mattn/go-isatty v0.0.20 // indirect
	github.com/mattn/go-runewidth v0.0.15 // indirect
	github.com/microcosm-cc/bluemonday v1.0.26 // indirect
	github.com/mitchellh/go-wordwrap v1.0.1 // indirect
	github.com/modern-go/concurrent v0.0.0-20180306012644-bacd9c7ef1dd // indirect
	github.com/modern-go/reflect2 v1.0.2 // indirect
	github.com/onsi/ginkgo v1.16.5 // indirect
	github.com/onsi/gomega v1.18.1 // indirect
	github.com/pmezard/go-difflib v1.0.0 // indirect
	github.com/rivo/uniseg v0.4.7 // indirect
	github.com/russross/blackfriday/v2 v2.1.0 // indirect
	github.com/sanity-io/litter v1.5.5 // indirect
	github.com/schollz/closestmatch v2.1.0+incompatible // indirect
	github.com/sirupsen/logrus v1.9.3 // indirect
	github.com/tdewolff/minify/v2 v2.20.18 // indirect
	github.com/tdewolff/parse/v2 v2.7.12 // indirect
	github.com/valyala/bytebufferpool v1.0.0 // indirect
	github.com/valyala/fasthttp v1.52.0 // indirect
	github.com/vmihailenco/msgpack/v5 v5.4.1 // indirect
	github.com/vmihailenco/tagparser/v2 v2.0.0 // indirect
	github.com/xeipuuv/gojsonpointer v0.0.0-20190905194746-02993c407bfb // indirect
	github.com/xeipuuv/gojsonreference v0.0.0-20180127040603-bd5ef7bd5415 // indirect
	github.com/xeipuuv/gojsonschema v1.2.0 // indirect
	github.com/yalp/jsonpath v0.0.0-20180802001716-5cc68e5049a0 // indirect
	github.com/yosssi/ace v0.0.5 // indirect
	github.com/yudai/gojsondiff v1.0.0 // indirect
	github.com/yudai/golcs v0.0.0-20170316035057-ecda9a501e82 // indirect
	go.mongodb.org/mongo-driver v1.14.0 // indirect
	golang.org/x/crypto v0.21.0 // indirect
	golang.org/x/exp v0.0.0-20240222234643-814bf88cf225 // indirect
	golang.org/x/net v0.22.0 // indirect
	golang.org/x/sys v0.18.0 // indirect
	golang.org/x/text v0.14.0 // indirect
	golang.org/x/time v0.5.0 // indirect
	google.golang.org/protobuf v1.32.0 // indirect
	gopkg.in/ini.v1 v1.67.0 // indirect
	moul.io/http2curl/v2 v2.3.0 // indirect
)
