{
  "tours": [
    {
      "id": 1,
      "name": "Northern Tour",
      "slug": "northern-tour",
      "date": "0001-01-01T00:00:00Z",
      "deliveries": null,
      "pickups": null,
      "riders": null,
      "stops_count": 0
    }
  ]
}
