{
  "vehicles": [
    {
      "id": 1,
      "description": "Joe the Rider",
      "profile": "bicycle",
      "capacity": [
        0
      ],
      "start": [
        1,
        1
      ],
      "end": [
        1,
        1
      ]
    }
  ],
  "jobs": [],
  "shipments": [
    {
      "pickup": {
        "id": 1,
        "location": [
          1,
          1
        ],
        "description": "Cool Store"
      },
      "delivery": {
        "id": 1,
        "location": [
          1,
          1
        ],
        "description": "Max Mustermann"
      },
      "amount": [
        0
      ]
    }
  ],
  "options": {
    "g": true
  }
}
